<svg width="35" height="38" viewBox="0 0 35 38" fill="none" xmlns="http://www.w3.org/2000/svg">
<path d="M7.6007 7.7389C7.4618 7.7389 7.31519 7.67796 7.22259 7.57894C7.12228 7.47992 7.06055 7.34281 7.06055 7.2057C7.06055 7.16761 7.06826 7.13715 7.06826 7.09906C7.06826 7.06097 7.0837 7.03051 7.09913 7.00004C7.11456 6.96957 7.12999 6.9391 7.15314 6.90863C7.17629 6.87816 7.19173 6.85531 7.22259 6.82484C7.24574 6.80199 7.27661 6.77914 7.30747 6.75629C7.33834 6.73343 7.36921 6.7182 7.40007 6.70297C7.43094 6.68773 7.46952 6.68011 7.50039 6.6725C7.56983 6.65726 7.63928 6.65726 7.70873 6.6725C7.7396 6.68011 7.77818 6.68773 7.80904 6.70297C7.83991 6.7182 7.87078 6.73343 7.90164 6.75629C7.93251 6.77914 7.95566 6.80199 7.98652 6.82484C8.00967 6.84769 8.03282 6.87816 8.05597 6.90863C8.07912 6.9391 8.09455 6.96957 8.10227 7.00004C8.1177 7.03051 8.12542 7.06859 8.13314 7.09906C8.14085 7.12953 8.14085 7.16761 8.14085 7.2057C8.14085 7.34281 8.08684 7.47992 7.97881 7.57894C7.95566 7.60179 7.92479 7.62464 7.89393 7.6475C7.86306 7.67035 7.83219 7.68558 7.80133 7.6932C7.77046 7.70843 7.73188 7.71605 7.70101 7.72367C7.67015 7.7389 7.63157 7.7389 7.6007 7.7389Z" fill="#FFA000"/>
<path d="M32.1316 36.9435H15.7339C15.433 36.9435 15.1938 36.7074 15.1938 36.4103V12.599H7.6007C7.29976 12.599 7.06055 12.3629 7.06055 12.0658V9.62067C7.06055 9.3236 7.29976 9.08746 7.6007 9.08746C7.90165 9.08746 8.14086 9.3236 8.14086 9.62067V11.5326H15.7339C16.0349 11.5326 16.2741 11.7687 16.2741 12.0658V35.8771H31.5914V29.5929C31.5914 29.2959 31.8306 29.0597 32.1316 29.0597C32.4325 29.0597 32.6717 29.2959 32.6717 29.5929V36.4103C32.6717 36.7074 32.4325 36.9435 32.1316 36.9435Z" fill="#FFA000"/>
<path d="M32.1314 28.45C32.0929 28.45 32.062 28.45 32.0234 28.4424C31.9848 28.4348 31.954 28.4272 31.9231 28.412C31.8922 28.3967 31.8614 28.3815 31.8305 28.3663C31.7996 28.3434 31.7765 28.3282 31.7456 28.2977C31.7225 28.2748 31.6993 28.2444 31.6762 28.2139C31.653 28.1834 31.6376 28.153 31.6299 28.1225C31.6145 28.092 31.6067 28.0539 31.599 28.0235C31.5913 27.9854 31.5913 27.9549 31.5913 27.9168C31.5913 27.8788 31.5913 27.8483 31.599 27.8102C31.6067 27.7721 31.6145 27.7416 31.6299 27.7112C31.6453 27.6807 31.6608 27.6502 31.6762 27.6198C31.6993 27.5893 31.7148 27.5664 31.7456 27.536C31.7688 27.5131 31.7996 27.4903 31.8305 27.4674C31.8614 27.4446 31.8922 27.4293 31.9231 27.4217C31.954 27.4065 31.9926 27.3989 32.0234 27.3912C32.0929 27.376 32.1623 27.376 32.2318 27.3912C32.2703 27.3989 32.3012 27.4065 32.3321 27.4217C32.3629 27.437 32.3938 27.4522 32.4247 27.4674C32.4555 27.4827 32.4787 27.5055 32.5095 27.536C32.5327 27.5588 32.5558 27.5893 32.579 27.6198C32.6021 27.6502 32.6176 27.6807 32.6253 27.7112C32.6407 27.7416 32.6484 27.7797 32.6562 27.8102C32.6639 27.8407 32.6639 27.8788 32.6639 27.9168C32.6639 27.9549 32.6639 27.9854 32.6562 28.0235C32.6484 28.0539 32.6407 28.092 32.6253 28.1225C32.6099 28.153 32.5944 28.1834 32.579 28.2139C32.5558 28.2444 32.5404 28.2748 32.5095 28.2977C32.4864 28.3205 32.4555 28.3434 32.4247 28.3663C32.3938 28.3891 32.3629 28.4043 32.3321 28.412C32.3012 28.4272 32.2626 28.4348 32.2318 28.4424C32.2009 28.45 32.17 28.45 32.1314 28.45Z" fill="#FFA000"/>
<path d="M32.1316 26.6678C31.8306 26.6678 31.5914 26.4316 31.5914 26.1346V1.06641H8.14086V5.54531C8.14086 5.84238 7.90165 6.07852 7.6007 6.07852C7.29976 6.07852 7.06055 5.84238 7.06055 5.54531V0.533203C7.06055 0.236133 7.29976 0 7.6007 0H32.1316C32.4325 0 32.6717 0.236133 32.6717 0.533203V26.1346C32.6717 26.4316 32.4325 26.6678 32.1316 26.6678Z" fill="#FFA000"/>
<path d="M7.95561 19.0125H5.67151C5.37056 19.0125 5.13135 18.7764 5.13135 18.4793V16.2246C5.13135 15.9275 5.37056 15.6914 5.67151 15.6914H7.95561C8.25655 15.6914 8.49577 15.9275 8.49577 16.2246V18.4793C8.49577 18.7764 8.25655 19.0125 7.95561 19.0125ZM6.21167 17.9461H7.41545V16.7578H6.21167V17.9461Z" fill="#FFA000"/>
<path d="M12.979 19.0125H10.6949C10.394 19.0125 10.1548 18.7764 10.1548 18.4793V16.2246C10.1548 15.9275 10.394 15.6914 10.6949 15.6914H12.979C13.28 15.6914 13.5192 15.9275 13.5192 16.2246V18.4793C13.5192 18.7764 13.28 19.0125 12.979 19.0125ZM11.2351 17.9461H12.4389V16.7578H11.2351V17.9461Z" fill="#FFA000"/>
<path d="M7.95561 23.6058H5.67151C5.37056 23.6058 5.13135 23.3697 5.13135 23.0726V20.8179C5.13135 20.5209 5.37056 20.2847 5.67151 20.2847H7.95561C8.25655 20.2847 8.49577 20.5209 8.49577 20.8179V23.0726C8.49577 23.3697 8.25655 23.6058 7.95561 23.6058ZM6.21167 22.5394H7.41545V21.3511H6.21167V22.5394Z" fill="#FFA000"/>
<path d="M12.979 23.6058H10.6949C10.394 23.6058 10.1548 23.3697 10.1548 23.0726V20.8179C10.1548 20.5209 10.394 20.2847 10.6949 20.2847H12.979C13.28 20.2847 13.5192 20.5209 13.5192 20.8179V23.0726C13.5192 23.3697 13.28 23.6058 12.979 23.6058ZM11.2351 22.5394H12.4389V21.3511H11.2351V22.5394Z" fill="#FFA000"/>
<path d="M7.95561 28.1912H5.67151C5.37056 28.1912 5.13135 27.9551 5.13135 27.658V25.4033C5.13135 25.1063 5.37056 24.8701 5.67151 24.8701H7.95561C8.25655 24.8701 8.49577 25.1063 8.49577 25.4033V27.658C8.49577 27.9551 8.25655 28.1912 7.95561 28.1912ZM6.21167 27.1248H7.41545V25.9365H6.21167V27.1248Z" fill="#FFA000"/>
<path d="M12.979 28.1912H10.6949C10.394 28.1912 10.1548 27.9551 10.1548 27.658V25.4033C10.1548 25.1063 10.394 24.8701 10.6949 24.8701H12.979C13.28 24.8701 13.5192 25.1063 13.5192 25.4033V27.658C13.5192 27.9551 13.28 28.1912 12.979 28.1912ZM11.2351 27.1248H12.4389V25.9365H11.2351V27.1248Z" fill="#FFA000"/>
<path d="M7.95561 32.7845H5.67151C5.37056 32.7845 5.13135 32.5484 5.13135 32.2513V29.9966C5.13135 29.6996 5.37056 29.4634 5.67151 29.4634H7.95561C8.25655 29.4634 8.49577 29.6996 8.49577 29.9966V32.2513C8.49577 32.5484 8.25655 32.7845 7.95561 32.7845ZM6.21167 31.7181H7.41545V30.5298H6.21167V31.7181Z" fill="#FFA000"/>
<path d="M12.979 32.7845H10.6949C10.394 32.7845 10.1548 32.5484 10.1548 32.2513V29.9966C10.1548 29.6996 10.394 29.4634 10.6949 29.4634H12.979C13.28 29.4634 13.5192 29.6996 13.5192 29.9966V32.2513C13.5192 32.5484 13.28 32.7845 12.979 32.7845ZM11.2351 31.7181H12.4389V30.5298H11.2351V31.7181Z" fill="#FFA000"/>
<path d="M21.5444 23.9637H19.3375C19.0366 23.9637 18.7974 23.7275 18.7974 23.4305V21.252C18.7974 20.9549 19.0366 20.7188 19.3375 20.7188H21.5444C21.8454 20.7188 22.0846 20.9549 22.0846 21.252V23.4305C22.0846 23.7275 21.8454 23.9637 21.5444 23.9637ZM19.8777 22.8973H21.0043V21.7852H19.8777V22.8973Z" fill="#FFA000"/>
<path d="M21.5444 28.968H19.3375C19.0366 28.968 18.7974 28.7319 18.7974 28.4348V26.2563C18.7974 25.9592 19.0366 25.7231 19.3375 25.7231H21.5444C21.8454 25.7231 22.0846 25.9592 22.0846 26.2563V28.4348C22.0846 28.7319 21.8454 28.968 21.5444 28.968ZM19.8777 27.9016H21.0043V26.7895H19.8777V27.9016Z" fill="#FFA000"/>
<path d="M21.5444 33.9728H19.3375C19.0366 33.9728 18.7974 33.7366 18.7974 33.4396V31.261C18.7974 30.964 19.0366 30.7278 19.3375 30.7278H21.5444C21.8454 30.7278 22.0846 30.964 22.0846 31.261V33.4396C22.0846 33.7366 21.8454 33.9728 21.5444 33.9728ZM19.8777 32.9064H21.0043V31.7943H19.8777V32.9064Z" fill="#FFA000"/>
<path d="M13.0407 5.46136H10.7643C10.4633 5.46136 10.2241 5.22523 10.2241 4.92816V2.68109C10.2241 2.38402 10.4633 2.14789 10.7643 2.14789H13.0407C13.3416 2.14789 13.5808 2.38402 13.5808 2.68109V4.92816C13.5808 5.22523 13.3339 5.46136 13.0407 5.46136ZM11.2967 4.39496H12.4928V3.21429H11.2967V4.39496Z" fill="#FFA000"/>
<path d="M18.4576 5.46136H16.1813C15.8803 5.46136 15.6411 5.22523 15.6411 4.92816V2.68109C15.6411 2.38402 15.8803 2.14789 16.1813 2.14789H18.4576C18.7586 2.14789 18.9978 2.38402 18.9978 2.68109V4.92816C18.9978 5.22523 18.7586 5.46136 18.4576 5.46136ZM16.7214 4.39496H17.9175V3.21429H16.7214V4.39496Z" fill="#FFA000"/>
<path d="M23.8825 5.46136H21.6061C21.3051 5.46136 21.0659 5.22523 21.0659 4.92816V2.68109C21.0659 2.38402 21.3051 2.14789 21.6061 2.14789H23.8825C24.1834 2.14789 24.4226 2.38402 24.4226 2.68109V4.92816C24.4226 5.22523 24.1834 5.46136 23.8825 5.46136ZM22.1462 4.39496H23.3423V3.21429H22.1462V4.39496Z" fill="#FFA000"/>
<path d="M29.6622 5.46136H27.3859C27.0849 5.46136 26.8457 5.22523 26.8457 4.92816V2.68109C26.8457 2.38402 27.0849 2.14789 27.3859 2.14789H29.6622C29.9631 2.14789 30.2024 2.38402 30.2024 2.68109V4.92816C30.2024 5.22523 29.9554 5.46136 29.6622 5.46136ZM27.926 4.39496H29.1221V3.21429H27.926V4.39496Z" fill="#FFA000"/>
<path d="M13.0407 10.1539H10.7643C10.4633 10.1539 10.2241 9.91774 10.2241 9.62067V7.3736C10.2241 7.07653 10.4633 6.84039 10.7643 6.84039H13.0407C13.3416 6.84039 13.5808 7.07653 13.5808 7.3736V9.62067C13.5808 9.91774 13.3339 10.1539 13.0407 10.1539ZM11.2967 9.08746H12.4928V7.9068H11.2967V9.08746Z" fill="#FFA000"/>
<path d="M18.4576 10.1539H16.1813C15.8803 10.1539 15.6411 9.91774 15.6411 9.62067V7.3736C15.6411 7.07653 15.8803 6.84039 16.1813 6.84039H18.4576C18.7586 6.84039 18.9978 7.07653 18.9978 7.3736V9.62067C18.9978 9.91774 18.7586 10.1539 18.4576 10.1539ZM16.7214 9.08746H17.9175V7.9068H16.7214V9.08746Z" fill="#FFA000"/>
<path d="M23.8825 10.1539H21.6061C21.3051 10.1539 21.0659 9.91774 21.0659 9.62067V7.3736C21.0659 7.07653 21.3051 6.84039 21.6061 6.84039H23.8825C24.1834 6.84039 24.4226 7.07653 24.4226 7.3736V9.62067C24.4226 9.91774 24.1834 10.1539 23.8825 10.1539ZM22.1462 9.08746H23.3423V7.9068H22.1462V9.08746Z" fill="#FFA000"/>
<path d="M29.6622 10.1539H27.3859C27.0849 10.1539 26.8457 9.91774 26.8457 9.62067V7.3736C26.8457 7.07653 27.0849 6.84039 27.3859 6.84039H29.6622C29.9631 6.84039 30.2024 7.07653 30.2024 7.3736V9.62067C30.2024 9.91774 29.9554 10.1539 29.6622 10.1539ZM27.926 9.08746H29.1221V7.9068H27.926V9.08746Z" fill="#FFA000"/>
<path d="M18.4576 14.8535H17.6165C17.3156 14.8535 17.0764 14.6174 17.0764 14.3203C17.0764 14.0232 17.3156 13.7871 17.6165 13.7871H17.9175V12.6064H17.5548C17.2539 12.6064 17.0146 12.3703 17.0146 12.0732C17.0146 11.7762 17.2539 11.54 17.5548 11.54H18.4576C18.7586 11.54 18.9978 11.7762 18.9978 12.0732V14.3203C18.9978 14.6098 18.7586 14.8535 18.4576 14.8535Z" fill="#FFA000"/>
<path d="M23.8825 14.8535H21.6061C21.3051 14.8535 21.0659 14.6174 21.0659 14.3203V12.0732C21.0659 11.7762 21.3051 11.54 21.6061 11.54H23.8825C24.1834 11.54 24.4226 11.7762 24.4226 12.0732V14.3203C24.4226 14.6098 24.1834 14.8535 23.8825 14.8535ZM22.1462 13.7871H23.3423V12.6064H22.1462V13.7871Z" fill="#FFA000"/>
<path d="M29.6622 14.8535H27.3859C27.0849 14.8535 26.8457 14.6174 26.8457 14.3203V12.0732C26.8457 11.7762 27.0849 11.54 27.3859 11.54H29.6622C29.9631 11.54 30.2024 11.7762 30.2024 12.0732V14.3203C30.2024 14.6098 29.9554 14.8535 29.6622 14.8535ZM27.926 13.7871H29.1221V12.6064H27.926V13.7871Z" fill="#FFA000"/>
<path d="M29.6622 19.5456H27.3859C27.0849 19.5456 26.8457 19.3095 26.8457 19.0124V16.7653C26.8457 16.4682 27.0849 16.2321 27.3859 16.2321H29.6622C29.9631 16.2321 30.2024 16.4682 30.2024 16.7653V19.0124C30.2024 19.3095 29.9554 19.5456 29.6622 19.5456ZM27.926 18.4792H29.1221V17.2985H27.926V18.4792Z" fill="#FFA000"/>
<path d="M29.6622 24.2377H27.3859C27.0849 24.2377 26.8457 24.0016 26.8457 23.7045V21.4575C26.8457 21.1604 27.0849 20.9243 27.3859 20.9243H29.6622C29.9631 20.9243 30.2024 21.1604 30.2024 21.4575V23.7045C30.2024 24.0016 29.9554 24.2377 29.6622 24.2377ZM27.926 23.1713H29.1221V21.9907H27.926V23.1713Z" fill="#FFA000"/>
<path d="M29.6622 28.9378H27.3859C27.0849 28.9378 26.8457 28.7017 26.8457 28.4046V26.1575C26.8457 25.8605 27.0849 25.6243 27.3859 25.6243H29.6622C29.9631 25.6243 30.2024 25.8605 30.2024 26.1575V28.4046C30.2024 28.6941 29.9554 28.9378 29.6622 28.9378ZM27.926 27.8714H29.1221V26.6907H27.926V27.8714Z" fill="#FFA000"/>
<path d="M29.6622 33.6299H27.3859C27.0849 33.6299 26.8457 33.3937 26.8457 33.0967V30.8496C26.8457 30.5525 27.0849 30.3164 27.3859 30.3164H29.6622C29.9631 30.3164 30.2024 30.5525 30.2024 30.8496V33.0967C30.2024 33.3937 29.9554 33.6299 29.6622 33.6299ZM27.926 32.5635H29.1221V31.3828H27.926V32.5635Z" fill="#FFA000"/>
<path d="M25.1477 36.9434H15.7335C15.4326 36.9434 15.1934 36.7072 15.1934 36.4102V18.2812C15.1934 17.9842 15.4326 17.748 15.7335 17.748H25.14C25.4409 17.748 25.6801 17.9842 25.6801 18.2812C25.6801 18.5783 25.4409 18.8145 25.14 18.8145H16.2737V35.877H24.5998V20.5436C24.5998 20.2465 24.839 20.0104 25.14 20.0104C25.4409 20.0104 25.6801 20.2465 25.6801 20.5436V36.4102C25.6878 36.7072 25.4409 36.9434 25.1477 36.9434Z" fill="#FFA000"/>
<path d="M15.7338 36.9435H2.91662C2.61568 36.9435 2.37646 36.7073 2.37646 36.4103V12.0657C2.37646 11.7687 2.61568 11.5325 2.91662 11.5325H15.7415C16.0424 11.5325 16.2817 11.7687 16.2817 12.0657V36.4103C16.2739 36.7073 16.0347 36.9435 15.7338 36.9435ZM3.45678 35.8771H15.2013V12.5989H3.45678V35.8771Z" fill="#FFA000"/>
<path d="M34.2074 37.1036H0.625039C0.285512 37.1036 0 36.8294 0 36.4866C0 36.1515 0.277795 35.8696 0.625039 35.8696H34.2074C34.5469 35.8696 34.8324 36.1438 34.8324 36.4866C34.8324 36.8294 34.5546 37.1036 34.2074 37.1036Z" fill="#FFA000"/>
</svg>
