<svg width="43" height="41" viewBox="0 0 43 41" fill="none" xmlns="http://www.w3.org/2000/svg">
<path d="M41.7375 6.6C42.193 6.6 42.5625 6.23044 42.5625 5.775V4.375C42.5625 2.37536 40.9372 0.75 38.9375 0.75H37.5375C37.0821 0.75 36.7125 1.11956 36.7125 1.575C36.7125 2.03044 37.0821 2.4 37.5375 2.4H38.9375C40.0263 2.4 40.9125 3.28624 40.9125 4.375V5.775C40.9125 6.23044 41.2821 6.6 41.7375 6.6Z" fill="#FFA000" stroke="#FFA000" stroke-width="0.25"/>
<path d="M0.3125 35.175V36.575C0.3125 38.5746 1.93786 40.2 3.9375 40.2H33.3375C33.7929 40.2 34.1625 39.8304 34.1625 39.375C34.1625 38.9195 33.7929 38.55 33.3375 38.55C32.2487 38.55 31.3625 37.6637 31.3625 36.575V35.175C31.3625 34.7195 30.9929 34.35 30.5375 34.35H1.1375C0.682064 34.35 0.3125 34.7195 0.3125 35.175ZM1.9625 36H29.7125V36.575C29.7125 37.3037 29.9287 37.9818 30.2989 38.55H3.9375C2.84874 38.55 1.9625 37.6637 1.9625 36.575V36Z" fill="#FFA000" stroke="#FFA000" stroke-width="0.25"/>
<path d="M29.7642 24.3684L29.7644 24.3686L31.744 26.3482C32.0658 26.6701 32.5888 26.6701 32.9106 26.3482C33.2324 26.0264 33.2324 25.5035 32.9106 25.1817C32.9106 25.1817 32.9106 25.1817 32.9106 25.1817L30.931 23.2007L30.931 23.2007C30.6079 22.8776 30.0862 22.8772 29.7642 23.2009C29.4427 23.5241 29.4427 24.0453 29.7642 24.3684Z" fill="#FFA000" stroke="#FFA000" stroke-width="0.25"/>
<path d="M32.0675 13.3656L32.0675 13.3654C31.9307 12.9303 32.1712 12.4663 32.6074 12.3308L32.6078 12.3306C33.0418 12.1975 33.5043 12.434 33.6415 12.8689L33.6416 12.8691C33.987 13.9677 34.1625 15.1143 34.1625 16.275C34.1625 22.5194 29.0819 27.6 22.8375 27.6C16.5931 27.6 11.5125 22.5194 11.5125 16.275C11.5125 10.0305 16.5931 4.94995 22.8375 4.94995C25.1872 4.94995 27.4412 5.66348 29.3565 7.01399C29.7296 7.2751 29.8183 7.79137 29.556 8.16262M32.0675 13.3656L29.4539 8.09055M32.0675 13.3656C32.3632 14.3024 32.5125 15.2809 32.5125 16.275C32.5125 21.6085 28.1725 25.95 22.8375 25.95C17.5026 25.95 13.1625 21.6085 13.1625 16.275C13.1625 10.9414 17.5026 6.59995 22.8375 6.59995C24.8459 6.59995 26.7707 7.20795 28.4056 8.3604M32.0675 13.3656L28.4781 8.25855M29.556 8.16262C29.556 8.16264 29.556 8.16267 29.556 8.16269L29.4539 8.09055M29.556 8.16262C29.5561 8.16257 29.5561 8.16253 29.5561 8.16248L29.4539 8.09055M29.556 8.16262C29.294 8.53495 28.7777 8.62638 28.4056 8.3604M29.4539 8.09055C29.2313 8.40695 28.7931 8.48395 28.4781 8.25855M28.4056 8.3604C28.4058 8.3605 28.4059 8.36061 28.4061 8.36072L28.4781 8.25855M28.4056 8.3604C28.4055 8.36033 28.4055 8.36027 28.4054 8.36021L28.4781 8.25855" fill="#FFA000" stroke="#FFA000" stroke-width="0.25"/>
<path d="M34.0373 26.2C34.3638 26.2 34.69 26.325 34.9387 26.5736L40.5387 32.1736C41.0373 32.6722 41.0373 33.4779 40.5387 33.9765C40.29 34.2251 39.9638 34.35 39.6373 34.35C39.3108 34.35 38.9846 34.2251 38.7359 33.9765L33.1359 28.3765C32.6373 27.8779 32.6373 27.0722 33.1359 26.5736C33.3846 26.325 33.7108 26.2 34.0373 26.2ZM34.0373 24.55C33.2565 24.55 32.5219 24.8544 31.9693 25.4071C31.4167 25.9597 31.1123 26.6943 31.1123 27.475C31.1123 28.2558 31.4167 28.9904 31.9693 29.543L37.5693 35.143C38.1219 35.6957 38.8565 36 39.6373 36C40.4181 36 41.1527 35.6957 41.7053 35.143C42.2579 34.5904 42.5623 33.8558 42.5623 33.075C42.5623 32.2943 42.2579 31.5597 41.7053 31.0071L36.1053 25.4071C35.5527 24.8544 34.8181 24.55 34.0373 24.55Z" fill="#FFA000" stroke="#FFA000" stroke-width="0.25"/>
<path d="M22.1174 20.5999L22.1174 20.6H22.1208H22.1209H22.1209H22.1209H22.121H22.121H22.121H22.121H22.1211H22.1211H22.1211H22.1212H22.1212H22.1212H22.1213H22.1213H22.1213H22.1214H22.1214H22.1214H22.1215H22.1215H22.1215H22.1216H22.1216H22.1216H22.1217H22.1217H22.1217H22.1218H22.1218H22.1218H22.1219H22.1219H22.1219H22.122H22.122H22.122H22.1221H22.1221H22.1221H22.1222H22.1222H22.1222H22.1223H22.1223H22.1223H22.1224H22.1224H22.1224H22.1225H22.1225H22.1225H22.1226H22.1226H22.1226H22.1227H22.1227H22.1227H22.1228H22.1228H22.1228H22.1229H22.1229H22.1229H22.123H22.123H22.123H22.1231H22.1231H22.1231H22.1231H22.1232H22.1232H22.1232H22.1233H22.1233H22.1233H22.1234H22.1234H22.1234H22.1235H22.1235H22.1235H22.1236H22.1236H22.1236H22.1237H22.1237H22.1237H22.1238H22.1238H22.1238H22.1239H22.1239H22.1239H22.124H22.124H22.124H22.1241H22.1241H22.1241H22.1242H22.1242H22.1242H22.1243H22.1243H22.1243H22.1244H22.1244H22.1244H22.1245H22.1245H22.1245H22.1246H22.1246H22.1246H22.1247H22.1247H22.1247H22.1248H22.1248H22.1248H22.1249H22.1249H22.1249H22.125H22.125H22.125H22.1251H22.1251H22.1251H22.1252H22.1252H22.1252H22.1252H22.1253H22.1253H22.1253H22.1254H22.1254H22.1254H22.1255H22.1255H22.1255H22.1256H22.1256H22.1256H22.1257H22.1257H22.1257H22.1258H22.1258H22.1258H22.1259H22.1259H22.1259H22.126H22.126H22.126H22.1261H22.1261H22.1261H22.1262H22.1262H22.1262H22.1263H22.1263H22.1263H22.1264H22.1264H22.1264H22.1265H22.1265H22.1265H22.1266H22.1266H22.1266H22.1267H22.1267H22.1267H22.1268H22.1268H22.1268H22.1269H22.1269H22.1269H22.127H22.127H22.127H22.1271H22.1271H22.1271H22.1272H22.1272H22.1272H22.1273H22.1273H22.1273H22.1273H22.1274H22.1274H22.1274H22.1275H22.1275H22.1275H22.1276H22.1276H22.1276H22.1277H22.1277H22.1277H22.1278H22.1278H22.1278H22.1279H22.1279H22.1279H22.128H22.128H22.128H22.1281H22.1281H22.1281H22.1282H22.1282H22.1282H22.1283H22.1283H22.1283H22.1284H22.1284H22.1284H22.1285H22.1285H22.1285H22.1286H22.1286H22.1286H22.1287H22.1287H22.1287H22.1288H22.1288H22.1288H22.1289H22.1289H22.1289H22.129H22.129H22.129H22.1291H22.1291H22.1291H22.1292H22.1292H22.1292H22.1293H22.1293H22.1293H22.1294H22.1294H22.1294H22.1294H22.1295H22.1295H22.1295H22.1296H22.1296H22.1296H22.1297H22.1297H22.1297H22.1298H22.1298H22.1298H22.1299H22.1299H22.1299H22.13H22.13H22.13H22.1301H22.1301H22.1301H22.1302H22.1302H22.1302H22.1303H22.1303H22.1303H22.1304H22.1304H22.1304H22.1305H22.1305H22.1305H22.1306H22.1306H22.1306H22.1307H22.1307H22.1307H22.1308H22.1308H22.1308H22.1309H22.1309H22.1309H22.131H22.131H22.131H22.1311H22.1311H22.1311H22.1312H22.1312H22.1312H22.1313H22.1313H22.1313H22.1314H22.1314H22.1314H22.1315H22.1315H22.1315H22.1315H22.1316H22.1316H22.1316H22.1317H22.1317H22.1317H22.1318H22.1318H22.1318H22.1319H22.1319H22.1319H22.132H22.132H22.132H22.1321H22.1321H22.1321H22.1322H22.1322H22.1322H22.1323H22.1323H22.1323H22.1324H22.1324H22.1324H22.1325H22.1325H22.1325H22.1326H22.1326H22.1326H22.1327H22.1327H22.1327H22.1328H22.1328H22.1328H22.1329H22.1329H22.1329H22.133H22.133H22.133H22.1331H22.1331H22.1331H22.1332H22.1332H22.1332H22.1333H22.1333H22.1333H22.1334H22.1334H22.1334H22.1335H22.1335H22.1335H22.1336H22.1336H22.1336H22.1336H22.1337H22.1337H22.1337H22.1338H22.1338H22.1338H22.1339H22.1339H22.1339H22.134H22.134H22.134H22.1341H22.1341H22.1341H22.1342H22.1342H22.1342H22.1343H22.1343H22.1343H22.1344H22.1344H22.1344H22.1345H22.1345H22.1345H22.1346H22.1346H22.1346H22.1347H22.1347H22.1347H22.1348H22.1348H22.1348H22.1349H22.1349H22.1349H22.135H22.135H22.135H22.1351H22.1351H22.1351H22.1352H22.1352H22.1352H22.1353H22.1353H22.1353H22.1354H22.1354H22.1354H22.1355H22.1355H22.1355H22.1356H22.1356H22.1356H22.1357H22.1357H22.1357H22.1357H22.1358H22.1358H22.1358H22.1359H22.1359H22.1359H22.136H22.136H22.136H22.1361H22.1361H22.1361H22.1362H22.1362H22.1362H22.1363H22.1363H22.1363H22.1364H22.1364H22.1364H22.1365H22.1365H22.1365H22.1366H22.1366H22.1366H22.1367H22.1367H22.1367H22.1368H22.1368H22.1368H22.1369H22.1369H22.1369H22.137H22.137H22.137H22.1371H22.1371H22.1371H22.1372H22.1372H22.1372H22.1373H22.1373H22.1373H22.1374H22.1374H22.1374H22.1375H22.1375H22.1375H22.1376H22.1376H22.1376C22.3703 20.6 22.5881 20.5025 22.7443 20.3333C22.7445 20.3332 22.7446 20.3331 22.7447 20.3329L33.2426 9.13368L33.2426 9.13368L33.2436 9.13266C33.5521 8.79612 33.5289 8.27483 33.1941 7.96646L33.1938 7.96621C32.8604 7.66085 32.3394 7.68076 32.0295 8.01668C32.0293 8.01682 32.0292 8.01695 32.0291 8.01708L22.167 18.5224L19.2713 15.0456L19.2708 15.045C18.9776 14.6974 18.4599 14.6494 18.1086 14.9396L18.1079 14.9402C17.7598 15.2322 17.7121 15.7515 18.0023 16.1026L18.0026 16.103L21.5026 20.303L21.5028 20.3033C21.6561 20.4863 21.8788 20.5934 22.1174 20.5999Z" fill="#FFA000" stroke="#FFA000" stroke-width="0.25"/>
<path d="M38.9375 2.4C39.3929 2.4 39.7625 2.03044 39.7625 1.575C39.7625 1.11956 39.3929 0.75 38.9375 0.75H10.9375C8.93786 0.75 7.3125 2.37536 7.3125 4.375V32.375C7.3125 32.8304 7.68206 33.2 8.1375 33.2C8.59294 33.2 8.9625 32.8304 8.9625 32.375V4.375C8.9625 3.28624 9.84874 2.4 10.9375 2.4H35.8989C35.5287 2.96845 35.3125 3.6475 35.3125 4.375V22.575C35.3125 23.0304 35.6821 23.4 36.1375 23.4C36.5929 23.4 36.9625 23.0304 36.9625 22.575V4.375C36.9625 3.28624 37.8487 2.4 38.9375 2.4Z" fill="#FFA000" stroke="#FFA000" stroke-width="0.25"/>
<path d="M30.8875 38.55H30.7625V38.675V40.075V40.2H30.8875H33.3375C35.3371 40.2 36.9625 38.5746 36.9625 36.575C36.9625 36.1196 36.5929 35.75 36.1375 35.75C35.6821 35.75 35.3125 36.1196 35.3125 36.575C35.3125 37.6638 34.4263 38.55 33.3375 38.55H30.8875Z" fill="#FFA000" stroke="#FFA000" stroke-width="0.25"/>
</svg>
